<?xml version="1.0" encoding="UTF-8" standalone="no"?>
<!DOCTYPE svg PUBLIC "-//W3C//DTD SVG 1.1//EN"
"http://www.w3.org/Graphics/SVG/1.1/DTD/svg11.dtd">
<!-- Creator: dpic version 2014.Jan.01 option -v for SVG 1.1 -->
<!-- width="364" height="206" -->
<svg
 xmlns="http://www.w3.org/2000/svg" xmlns:xlink="http://www.w3.org/1999/xlink"
 xml:space="preserve"
 style="shape-rendering:geometricPrecision; text-rendering:geometricPrecision;
 image-rendering:optimizeQuality; fill-rule:evenodd; clip-rule:evenodd"
 width="363px" height="205.5px"
 viewBox="0 0 363 205.5"
 font-size="11pt" text-anchor="middle"
 stroke="black" stroke-miterlimit="10" stroke-width="1" fill="none">
<g>
<rect fill="gray"
 x="0.5" y="0.5" width="360" height="22.5" />
<text stroke-width="0.2pt" fill="black" x="178.535714" y="16.5625">
Bus
</text>
<polygon fill="black"
 points="45.5,31.5 47.109612,31.5
45.5,25.061553 43.890388,31.5" />
<polygon fill="black"
 points="45.5,59.5 43.890388,59.5
45.5,65.938447 47.109612,59.5" />
<line x1="45.5" y1="25.061553" x2="45.5" y2="65.938447" />
<rect x="11.75" y="68" width="67.5" height="45" />
<text stroke-width="0.2pt" fill="black" x="43.535714" y="95.3125">
Forebrain
</text>
<polygon fill="black"
 points="180.5,31.5 182.109612,31.5
180.5,25.061553 178.890388,31.5" />
<polygon fill="black"
 points="180.5,59.5 178.890388,59.5
180.5,65.938447 182.109612,59.5" />
<line x1="180.5" y1="25.061553" x2="180.5" y2="65.938447" />
<rect x="146.75" y="68" width="67.5" height="45" />
<text stroke-width="0.2pt" fill="black" x="178.535714" y="95.3125">
Midbrain
</text>
<polygon fill="black"
 points="315.5,59.5 313.890388,59.5
315.5,65.938447 317.109612,59.5" />
<line x1="315.5" y1="23" x2="315.5" y2="65.938447" />
<ellipse cx="315.5" cy="90.5" rx="33.75" ry="22.5" />
<text stroke-width="0.2pt" fill="black" x="313.535714" y="95.3125">
Display
</text>
<polygon fill="black"
 points="180.5,149.5 178.890388,149.5
180.5,155.938447 182.109612,149.5" />
<line stroke-dasharray="4.5,4.5"
 x1="180.5" y1="113" x2="180.5" y2="155.938447" />
<ellipse cx="180.5" cy="180.5" rx="33.75" ry="22.5" />
<text stroke-width="0.2pt" fill="black" x="178.535714" y="185.3125">
Buzzer
</text>
</g></svg>
